{
    "train":{
        "name":"特急サンダーバード",
        "date":"20200205",
        "info":[
            {
                "no":1,
                "length":12
            },
            {
                "no":3,
                "length":12
            },
            {
                "no":5,
                "length":12
            },
            {
                "no":7,
                "length":9
            },
            {
                "no":9,
                "length":9
            },
            {
                "no":11,
                "length":9
            },
            {
                "no":13,
                "length":9
            },
            {
                "no":15,
                "length":9
            },
            {
                "no":17,
                "length":9
            },
            {
                "no":19,
                "length":9
            },
            {
                "no":21,
                "length":9
            },
            {
                "no":23,
                "length":12
            },
            {
                "no":25,
                "length":12
            },
            {
                "no":27,
                "length":12
            },
            {
                "no":29,
                "length":12
            },
            {
                "no":31,
                "length":9
            },
            {
                "no":33,
                "length":12
            },
            {
                "no":35,
                "length":9
            },
            {
                "no":37,
                "length":9
            },
            {
                "no":39,
                "length":9
            },
            {
                "no":41,
                "length":9
            },
            {
                "no":43,
                "length":9
            },
            {
                "no":45,
                "length":9
            },
            {
                "no":47,
                "length":9
            },
            {
                "no":49,
                "length":9
            }
        ]
    }
}